<svg width="18" height="17" viewBox="0 0 18 17" fill="none" xmlns="http://www.w3.org/2000/svg">
<path d="M17.3337 6.69996L11.342 6.18329L9.00033 0.666626L6.65866 6.19163L0.666992 6.69996L5.21699 10.6416L3.85033 16.5L9.00033 13.3916L14.1503 16.5L12.792 10.6416L17.3337 6.69996ZM9.00033 11.8333V4.08329L10.4253 7.44996L14.0753 7.76663L11.3087 10.1666L12.142 13.7333L9.00033 11.8333Z" fill="#212121"/>
</svg>
